Lauren_Anikis_Project_2
…
options(scipen = 999)

#3. is there a correllation between RUCC and number of pills/person?

arcos_county_pills_and_population <- arcos_county_pills_per_year %>%
  inner_join(arcos_county_population_per_year, by=c("countyfips", "buyer_county", "buyer_state", "year")) %>%
  group_by(countyfips, buyer_county, buyer_state) %>%
  summarise(total_pills = sum(dosage_unit), total_population = sum(population)) %>%
  mutate(pills_per_person = total_pills/total_population) %>%
  inner_join(urban_rural_continuum, by=c("countyfips" = "FIPS"))

arcos_county_pills_and_population %>%
  inner_join(urban_rural_continuum, by=c("countyfips" = "FIPS"))

## # A tibble: 3,036 x 16
## # Groups:   countyfips, buyer_county [3,036]
##    countyfips buyer_county buyer_state total_pills total_population
##    <chr>      <chr>        <chr>             <dbl>            <int>
##  1 01001      AUTAUGA      AL             21268470           368283
##  2 01003      BALDWIN      AL             69926581          1226889
##  3 01005      BARBOUR      AL              7990640           195803
##  4 01007      BIBB         AL              7416060           156831
##  5 01009      BLOUNT       AL             11940485           396882
##  6 01011      BULLOCK      AL              1909220            76236
##  7 01013      BUTLER       AL              7543660           145332
##  8 01015      CALHOUN      AL             50429369           814439
##  9 01017      CHAMBERS     AL             13490763           242241
## 10 01019      CHEROKEE     AL             12194350           178518
## #  with 3,026 more rows, and 11 more variables: pills_per_person <dbl>,
## #   State.x <chr>, County_Name.x <chr>, Population_2010.x <dbl>,
## #   RUCC_2013.x <dbl>, Description.x <chr>, State.y <chr>,
## #   County_Name.y <chr>, Population_2010.y <dbl>, RUCC_2013.y <dbl>,
## #   Description.y <chr>
…
#13.what counties have the highest overdoses per person?

view(overdose_urban_rural_combined) %>%
  arrange(desc(crude_rate))

## # A tibble: 1,066 x 10
##    county county_code deaths population crude_rate State County_Name
##    <chr>  <chr>       <chr>  <chr>           <dbl> <chr> <chr>      
##  1 Wyomi 54109       130    166710           78   WV    Wyoming Co
##  2 McDow 54047       109    155883           69.9 WV    McDowell C
##  3 Boone 54005       89     173327           51.3 WV    Boone Coun
##  4 Floyd 21071       133    277904           47.9 KY    Floyd Coun
##  5 Marti 21159       43     91218            47.1 KY    Martin Cou
##  6 Dicke 51051       52     111266           46.7 VA    Dickenson 
##  7 Mingo 54059       87     187497           46.4 WV    Mingo Coun
##  8 Powel 21197       41     89054            46   KY    Powell Cou
##  9 Bell  21013       84     200856           41.8 KY    Bell County
## 10 Logan 54045       104    255444           40.7 WV    Logan Coun
## #  with 1,056 more rows, and 3 more variables: Population_2010 <dbl>,
## #   RUCC_2013 <dbl>, Description <chr>
…
